hyperparameter-tuning
…
collect_metrics(model_params)

# A tibble: 60 × 8
   trees learn_rate .metric .estimator  mean     n std_err .config              
   <int>      <dbl> <chr>   <chr>      <dbl> <int>   <dbl> <chr>                
 1  1623    0.00113 mae     standard   0.303    10 0.0109  Preprocessor1_Model01
 2  1623    0.00113 rmse    standard   0.422    10 0.0221  Preprocessor1_Model01
 3  1623    0.00113 rsq     standard   0.905    10 0.00745 Preprocessor1_Model01
 4    74    0.00178 mae     standard   0.805    10 0.0296  Preprocessor1_Model02
 5    74    0.00178 rmse    standard   1.17     10 0.0378  Preprocessor1_Model02
 6    74    0.00178 rsq     standard   0.893    10 0.00788 Preprocessor1_Model02
 7   172    0.00186 mae     standard   0.687    10 0.0253  Preprocessor1_Model03
 8   172    0.00186 rmse    standard   0.992    10 0.0339  Preprocessor1_Model03
 9   172    0.00186 rsq     standard   0.899    10 0.00797 Preprocessor1_Model03
10  1274    0.00303 mae     standard   0.262    10 0.0108  Preprocessor1_Model04
# ℹ 50 more rows
…
